Request time : 2019-07-26 11:03:39
Uri : /kompepar_api/user/login
Method : POST
Ip : ::1
Query : 
jwt=eyJ0eXAiOiJKV1QiLCJhbGciOiJIUzI1NiJ9.eyJjbGllbnRfaWQiOiJXRUJfUE9SVEFMIiwiY2xpZW50X3NlY3JldCI6IjdhMjdhZDEzZTlkMjc4ZDlmYjBiMDFmNmYyMTU5ZmZlOGRjMWE2ODMiLCJlbWFpbCI6IiIsInBhc3N3b3JkIjoiIn0.oLxxV1xDqdVt-1UH2O0tg2YPwXZAkWzZ0lbSOzQ3YAE
Response : 
{
    "status": "ERROR",
    "messages": "Resource \/Applications\/XAMPP\/xamppfiles\/htdocs\/kompepar_api\/app\/Models\/SettingModel.php not available! file :\/Applications\/XAMPP\/xamppfiles\/htdocs\/kompepar_api\/app\/Controllers\/User.php at line : 23",
    "results": null,
    "time": "2019-07-26 11:03:39"
}


--------------------------------------------------------------------------

Request time : 2019-07-26 11:30:17
Uri : /kompepar_api/main/travel_category?jwt=eyJ0eXAiOiJKV1QiLCJhbGciOiJIUzI1NiJ9.eyJjbGllbnRfaWQiOiJXRUJfUE9SVEFMIiwiY2xpZW50X3NlY3JldCI6IjdhMjdhZDEzZTlkMjc4ZDlmYjBiMDFmNmYyMTU5ZmZlOGRjMWE2ODMifQ.XB7RohmpKEhEnMMW_Mk5fUXbutqH9sLOm4KoKQA8M9s
Method : GET
Ip : ::1
Query : 
jwt=eyJ0eXAiOiJKV1QiLCJhbGciOiJIUzI1NiJ9.eyJjbGllbnRfaWQiOiJXRUJfUE9SVEFMIiwiY2xpZW50X3NlY3JldCI6IjdhMjdhZDEzZTlkMjc4ZDlmYjBiMDFmNmYyMTU5ZmZlOGRjMWE2ODMifQ.XB7RohmpKEhEnMMW_Mk5fUXbutqH9sLOm4KoKQA8M9s
Response : 
{
    "status": "ERROR",
    "messages": "pg_connect(): Unable to connect to PostgreSQL server: fe_sendauth: no password supplied file :\/Applications\/XAMPP\/xamppfiles\/htdocs\/kompepar_api\/panada\/Drivers\/Database\/Pgsql.php at line : 55",
    "results": null,
    "time": "2019-07-26 11:30:17"
}


--------------------------------------------------------------------------

Request time : 2019-07-26 11:31:30
Uri : /kompepar_api/main/travel_category?jwt=eyJ0eXAiOiJKV1QiLCJhbGciOiJIUzI1NiJ9.eyJjbGllbnRfaWQiOiJXRUJfUE9SVEFMIiwiY2xpZW50X3NlY3JldCI6IjdhMjdhZDEzZTlkMjc4ZDlmYjBiMDFmNmYyMTU5ZmZlOGRjMWE2ODMifQ.XB7RohmpKEhEnMMW_Mk5fUXbutqH9sLOm4KoKQA8M9s
Method : GET
Ip : ::1
Query : 
jwt=eyJ0eXAiOiJKV1QiLCJhbGciOiJIUzI1NiJ9.eyJjbGllbnRfaWQiOiJXRUJfUE9SVEFMIiwiY2xpZW50X3NlY3JldCI6IjdhMjdhZDEzZTlkMjc4ZDlmYjBiMDFmNmYyMTU5ZmZlOGRjMWE2ODMifQ.XB7RohmpKEhEnMMW_Mk5fUXbutqH9sLOm4KoKQA8M9s
Response : 
{
    "status": "ERROR",
    "messages": "pg_connect(): Unable to connect to PostgreSQL server: could not open certificate file &quot;\/var\/root\/.postgresql\/postgresql.crt&quot;: Permission denied\nFATAL:  no pg_hba.conf entry for host &quot;36.71.233.123&quot;, user &quot;uilwlwvuzhuqsc&quot;, database &quot;d8d1ca4mi444de&quot;, SSL off file :\/Applications\/XAMPP\/xamppfiles\/htdocs\/kompepar_api\/panada\/Drivers\/Database\/Pgsql.php at line : 55",
    "results": null,
    "time": "2019-07-26 11:31:30"
}


--------------------------------------------------------------------------

Request time : 2019-07-26 11:32:53
Uri : /kompepar_api/main/travel_category?jwt=eyJ0eXAiOiJKV1QiLCJhbGciOiJIUzI1NiJ9.eyJjbGllbnRfaWQiOiJXRUJfUE9SVEFMIiwiY2xpZW50X3NlY3JldCI6IjdhMjdhZDEzZTlkMjc4ZDlmYjBiMDFmNmYyMTU5ZmZlOGRjMWE2ODMifQ.XB7RohmpKEhEnMMW_Mk5fUXbutqH9sLOm4KoKQA8M9s
Method : GET
Ip : ::1
Query : 
jwt=eyJ0eXAiOiJKV1QiLCJhbGciOiJIUzI1NiJ9.eyJjbGllbnRfaWQiOiJXRUJfUE9SVEFMIiwiY2xpZW50X3NlY3JldCI6IjdhMjdhZDEzZTlkMjc4ZDlmYjBiMDFmNmYyMTU5ZmZlOGRjMWE2ODMifQ.XB7RohmpKEhEnMMW_Mk5fUXbutqH9sLOm4KoKQA8M9s
Response : 
{
    "status": "ERROR",
    "messages": "pg_connect(): Unable to connect to PostgreSQL server: could not open certificate file &quot;\/var\/root\/.postgresql\/postgresql.crt&quot;: Permission denied\nFATAL:  no pg_hba.conf entry for host &quot;36.71.233.123&quot;, user &quot;uilwlwvuzhuqsc&quot;, database &quot;d8d1ca4mi444de&quot;, SSL off file :\/Applications\/XAMPP\/xamppfiles\/htdocs\/kompepar_api\/panada\/Drivers\/Database\/Pgsql.php at line : 55",
    "results": null,
    "time": "2019-07-26 11:32:53"
}


--------------------------------------------------------------------------

Request time : 2019-07-26 12:43:56
Uri : /kompepar_api/main/travel_category?jwt=eyJ0eXAiOiJKV1QiLCJhbGciOiJIUzI1NiJ9.eyJjbGllbnRfaWQiOiJXRUJfUE9SVEFMIiwiY2xpZW50X3NlY3JldCI6IjdhMjdhZDEzZTlkMjc4ZDlmYjBiMDFmNmYyMTU5ZmZlOGRjMWE2ODMifQ.XB7RohmpKEhEnMMW_Mk5fUXbutqH9sLOm4KoKQA8M9s
Method : GET
Ip : ::1
Query : 
jwt=eyJ0eXAiOiJKV1QiLCJhbGciOiJIUzI1NiJ9.eyJjbGllbnRfaWQiOiJXRUJfUE9SVEFMIiwiY2xpZW50X3NlY3JldCI6IjdhMjdhZDEzZTlkMjc4ZDlmYjBiMDFmNmYyMTU5ZmZlOGRjMWE2ODMifQ.XB7RohmpKEhEnMMW_Mk5fUXbutqH9sLOm4KoKQA8M9s
Response : 
{
    "status": "ERROR",
    "messages": "pg_connect(): Unable to connect to PostgreSQL server: could not open certificate file &quot;\/var\/root\/.postgresql\/postgresql.crt&quot;: Permission denied\nFATAL:  no pg_hba.conf entry for host &quot;36.71.233.123&quot;, user &quot;uilwlwvuzhuqsc&quot;, database &quot;d8d1ca4mi444de&quot;, SSL off file :\/Applications\/XAMPP\/xamppfiles\/htdocs\/kompepar_api\/panada\/Drivers\/Database\/Pgsql.php at line : 55",
    "results": null,
    "time": "2019-07-26 12:43:56"
}


--------------------------------------------------------------------------

Request time : 2019-07-26 12:45:11
Uri : /kompepar_api/main/travel_category?jwt=eyJ0eXAiOiJKV1QiLCJhbGciOiJIUzI1NiJ9.eyJjbGllbnRfaWQiOiJXRUJfUE9SVEFMIiwiY2xpZW50X3NlY3JldCI6IjdhMjdhZDEzZTlkMjc4ZDlmYjBiMDFmNmYyMTU5ZmZlOGRjMWE2ODMifQ.XB7RohmpKEhEnMMW_Mk5fUXbutqH9sLOm4KoKQA8M9s
Method : GET
Ip : ::1
Query : 
jwt=eyJ0eXAiOiJKV1QiLCJhbGciOiJIUzI1NiJ9.eyJjbGllbnRfaWQiOiJXRUJfUE9SVEFMIiwiY2xpZW50X3NlY3JldCI6IjdhMjdhZDEzZTlkMjc4ZDlmYjBiMDFmNmYyMTU5ZmZlOGRjMWE2ODMifQ.XB7RohmpKEhEnMMW_Mk5fUXbutqH9sLOm4KoKQA8M9s
Response : 
{
    "status": "ERROR",
    "messages": "pg_query(): Query failed: ERROR:  relation &quot;_api_auth&quot; does not exist\nLINE 1: SELECT * FROM _api_auth WHERE auth_client_id =  'WEB_PORTAL'...\n                      ^ file :\/Applications\/XAMPP\/xamppfiles\/htdocs\/kompepar_api\/panada\/Drivers\/Database\/Pgsql.php at line : 136",
    "results": null,
    "time": "2019-07-26 12:45:11"
}


--------------------------------------------------------------------------

Request time : 2019-07-26 12:52:54
Uri : /kompepar_api/main/travel_category?jwt=eyJ0eXAiOiJKV1QiLCJhbGciOiJIUzI1NiJ9.eyJjbGllbnRfaWQiOiJXRUJfUE9SVEFMIiwiY2xpZW50X3NlY3JldCI6IjdhMjdhZDEzZTlkMjc4ZDlmYjBiMDFmNmYyMTU5ZmZlOGRjMWE2ODMifQ.XB7RohmpKEhEnMMW_Mk5fUXbutqH9sLOm4KoKQA8M9s
Method : GET
Ip : ::1
Query : 
jwt=eyJ0eXAiOiJKV1QiLCJhbGciOiJIUzI1NiJ9.eyJjbGllbnRfaWQiOiJXRUJfUE9SVEFMIiwiY2xpZW50X3NlY3JldCI6IjdhMjdhZDEzZTlkMjc4ZDlmYjBiMDFmNmYyMTU5ZmZlOGRjMWE2ODMifQ.XB7RohmpKEhEnMMW_Mk5fUXbutqH9sLOm4KoKQA8M9s
Response : 
{
    "status": "ERROR",
    "messages": "pg_query(): Query failed: ERROR:  relation &quot;_api_auth&quot; does not exist\nLINE 1: SELECT * FROM _api_auth WHERE auth_client_id =  'WEB_PORTAL'...\n                      ^ file :\/Applications\/XAMPP\/xamppfiles\/htdocs\/kompepar_api\/panada\/Drivers\/Database\/Pgsql.php at line : 136",
    "results": null,
    "time": "2019-07-26 12:52:54"
}


--------------------------------------------------------------------------

Request time : 2019-07-26 12:55:52
Uri : /kompepar_api/main/travel_category?jwt=eyJ0eXAiOiJKV1QiLCJhbGciOiJIUzI1NiJ9.eyJjbGllbnRfaWQiOiJXRUJfUE9SVEFMIiwiY2xpZW50X3NlY3JldCI6IjdhMjdhZDEzZTlkMjc4ZDlmYjBiMDFmNmYyMTU5ZmZlOGRjMWE2ODMifQ.XB7RohmpKEhEnMMW_Mk5fUXbutqH9sLOm4KoKQA8M9s
Method : GET
Ip : ::1
Query : 
jwt=eyJ0eXAiOiJKV1QiLCJhbGciOiJIUzI1NiJ9.eyJjbGllbnRfaWQiOiJXRUJfUE9SVEFMIiwiY2xpZW50X3NlY3JldCI6IjdhMjdhZDEzZTlkMjc4ZDlmYjBiMDFmNmYyMTU5ZmZlOGRjMWE2ODMifQ.XB7RohmpKEhEnMMW_Mk5fUXbutqH9sLOm4KoKQA8M9s
Response : 
{
    "status": "INVALID_AUTH",
    "messages": "Authentication Failed",
    "results": null,
    "time": "2019-07-26 12:55:52"
}


--------------------------------------------------------------------------

Request time : 2019-07-26 12:57:53
Uri : /kompepar_api/main/travel_category?jwt=eyJ0eXAiOiJKV1QiLCJhbGciOiJIUzI1NiJ9.eyJjbGllbnRfaWQiOiJXRUJfUE9SVEFMIiwiY2xpZW50X3NlY3JldCI6IjdhMjdhZDEzZTlkMjc4ZDlmYjBiMDFmNmYyMTU5ZmZlOGRjMWE2ODMifQ.XB7RohmpKEhEnMMW_Mk5fUXbutqH9sLOm4KoKQA8M9s
Method : GET
Ip : ::1
Query : 
jwt=eyJ0eXAiOiJKV1QiLCJhbGciOiJIUzI1NiJ9.eyJjbGllbnRfaWQiOiJXRUJfUE9SVEFMIiwiY2xpZW50X3NlY3JldCI6IjdhMjdhZDEzZTlkMjc4ZDlmYjBiMDFmNmYyMTU5ZmZlOGRjMWE2ODMifQ.XB7RohmpKEhEnMMW_Mk5fUXbutqH9sLOm4KoKQA8M9s
Response : 
{
    "status": "INVALID_AUTH",
    "messages": "Authentication Failed",
    "results": null,
    "time": "2019-07-26 12:57:53"
}


--------------------------------------------------------------------------

Request time : 2019-07-26 12:58:09
Uri : /kompepar_api/main/travel_category?jwt=eyJ0eXAiOiJKV1QiLCJhbGciOiJIUzI1NiJ9.eyJjbGllbnRfaWQiOiJXRUJfUE9SVEFMIiwiY2xpZW50X3NlY3JldCI6IjdhMjdhZDEzZTlkMjc4ZDlmYjBiMDFmNmYyMTU5ZmZlOGRjMWE2ODMifQ.XB7RohmpKEhEnMMW_Mk5fUXbutqH9sLOm4KoKQA8M9s
Method : GET
Ip : ::1
Query : 
jwt=eyJ0eXAiOiJKV1QiLCJhbGciOiJIUzI1NiJ9.eyJjbGllbnRfaWQiOiJXRUJfUE9SVEFMIiwiY2xpZW50X3NlY3JldCI6IjdhMjdhZDEzZTlkMjc4ZDlmYjBiMDFmNmYyMTU5ZmZlOGRjMWE2ODMifQ.XB7RohmpKEhEnMMW_Mk5fUXbutqH9sLOm4KoKQA8M9s
Response : 
{
    "status": "ERROR",
    "messages": "pg_query(): Query failed: ERROR:  relation &quot;_apiauth&quot; does not exist\nLINE 1: SELECT * FROM _apiauth WHERE auth_client_id =  'WEB_PORTAL' \n                      ^ file :\/Applications\/XAMPP\/xamppfiles\/htdocs\/kompepar_api\/panada\/Drivers\/Database\/Pgsql.php at line : 136",
    "results": null,
    "time": "2019-07-26 12:58:09"
}


--------------------------------------------------------------------------

Request time : 2019-07-26 12:58:37
Uri : /kompepar_api/main/travel_category?jwt=eyJ0eXAiOiJKV1QiLCJhbGciOiJIUzI1NiJ9.eyJjbGllbnRfaWQiOiJXRUJfUE9SVEFMIiwiY2xpZW50X3NlY3JldCI6IjdhMjdhZDEzZTlkMjc4ZDlmYjBiMDFmNmYyMTU5ZmZlOGRjMWE2ODMifQ.XB7RohmpKEhEnMMW_Mk5fUXbutqH9sLOm4KoKQA8M9s
Method : GET
Ip : ::1
Query : 
jwt=eyJ0eXAiOiJKV1QiLCJhbGciOiJIUzI1NiJ9.eyJjbGllbnRfaWQiOiJXRUJfUE9SVEFMIiwiY2xpZW50X3NlY3JldCI6IjdhMjdhZDEzZTlkMjc4ZDlmYjBiMDFmNmYyMTU5ZmZlOGRjMWE2ODMifQ.XB7RohmpKEhEnMMW_Mk5fUXbutqH9sLOm4KoKQA8M9s
Response : 
{
    "status": "INVALID_AUTH",
    "messages": "Authentication Failed",
    "results": null,
    "time": "2019-07-26 12:58:37"
}


--------------------------------------------------------------------------

Request time : 2019-07-26 12:58:46
Uri : /kompepar_api/main/travel_category?jwt=eyJ0eXAiOiJKV1QiLCJhbGciOiJIUzI1NiJ9.eyJjbGllbnRfaWQiOiJXRUJfUE9SVEFMIiwiY2xpZW50X3NlY3JldCI6IjdhMjdhZDEzZTlkMjc4ZDlmYjBiMDFmNmYyMTU5ZmZlOGRjMWE2ODMifQ.XB7RohmpKEhEnMMW_Mk5fUXbutqH9sLOm4KoKQA8M9s
Method : GET
Ip : ::1
Query : 
jwt=eyJ0eXAiOiJKV1QiLCJhbGciOiJIUzI1NiJ9.eyJjbGllbnRfaWQiOiJXRUJfUE9SVEFMIiwiY2xpZW50X3NlY3JldCI6IjdhMjdhZDEzZTlkMjc4ZDlmYjBiMDFmNmYyMTU5ZmZlOGRjMWE2ODMifQ.XB7RohmpKEhEnMMW_Mk5fUXbutqH9sLOm4KoKQA8M9s
Response : 
{
    "status": "ERROR",
    "messages": "pg_query(): Query failed: ERROR:  column &quot;auth_client_i&quot; does not exist\nLINE 1: SELECT * FROM _api_auth WHERE auth_client_i =  'WEB_PORTAL' \n                                      ^\nHINT:  Perhaps you meant to reference the column &quot;_api_auth.auth_client_id&quot;. file :\/Applications\/XAMPP\/xamppfiles\/htdocs\/kompepar_api\/panada\/Drivers\/Database\/Pgsql.php at line : 136",
    "results": null,
    "time": "2019-07-26 12:58:46"
}


--------------------------------------------------------------------------

Request time : 2019-07-26 13:00:43
Uri : /kompepar_api/main/travel_category?jwt=eyJ0eXAiOiJKV1QiLCJhbGciOiJIUzI1NiJ9.eyJjbGllbnRfaWQiOiJXRUJfUE9SVEFMIiwiY2xpZW50X3NlY3JldCI6IjdhMjdhZDEzZTlkMjc4ZDlmYjBiMDFmNmYyMTU5ZmZlOGRjMWE2ODMifQ.XB7RohmpKEhEnMMW_Mk5fUXbutqH9sLOm4KoKQA8M9s
Method : GET
Ip : ::1
Query : 
jwt=eyJ0eXAiOiJKV1QiLCJhbGciOiJIUzI1NiJ9.eyJjbGllbnRfaWQiOiJXRUJfUE9SVEFMIiwiY2xpZW50X3NlY3JldCI6IjdhMjdhZDEzZTlkMjc4ZDlmYjBiMDFmNmYyMTU5ZmZlOGRjMWE2ODMifQ.XB7RohmpKEhEnMMW_Mk5fUXbutqH9sLOm4KoKQA8M9s
Response : 
{
    "status": "ERROR",
    "messages": "Undefined property _categoryModel file :\/Applications\/XAMPP\/xamppfiles\/htdocs\/kompepar_api\/app\/Controllers\/Main.php at line : 41",
    "results": null,
    "time": "2019-07-26 13:00:43"
}


--------------------------------------------------------------------------

Request time : 2019-07-26 13:00:58
Uri : /kompepar_api/main/travel_category?jwt=eyJ0eXAiOiJKV1QiLCJhbGciOiJIUzI1NiJ9.eyJjbGllbnRfaWQiOiJXRUJfUE9SVEFMIiwiY2xpZW50X3NlY3JldCI6IjdhMjdhZDEzZTlkMjc4ZDlmYjBiMDFmNmYyMTU5ZmZlOGRjMWE2ODMifQ.XB7RohmpKEhEnMMW_Mk5fUXbutqH9sLOm4KoKQA8M9s
Method : GET
Ip : ::1
Query : 
jwt=eyJ0eXAiOiJKV1QiLCJhbGciOiJIUzI1NiJ9.eyJjbGllbnRfaWQiOiJXRUJfUE9SVEFMIiwiY2xpZW50X3NlY3JldCI6IjdhMjdhZDEzZTlkMjc4ZDlmYjBiMDFmNmYyMTU5ZmZlOGRjMWE2ODMifQ.XB7RohmpKEhEnMMW_Mk5fUXbutqH9sLOm4KoKQA8M9s
Response : 
{
    "status": "INVALID_AUTH",
    "messages": "Authentication Failed",
    "results": null,
    "time": "2019-07-26 13:00:58"
}


--------------------------------------------------------------------------

Request time : 2019-07-26 13:01:05
Uri : /kompepar_api/main/travel_category?jwt=eyJ0eXAiOiJKV1QiLCJhbGciOiJIUzI1NiJ9.eyJjbGllbnRfaWQiOiJXRUJfUE9SVEFMIiwiY2xpZW50X3NlY3JldCI6IjdhMjdhZDEzZTlkMjc4ZDlmYjBiMDFmNmYyMTU5ZmZlOGRjMWE2ODMifQ.XB7RohmpKEhEnMMW_Mk5fUXbutqH9sLOm4KoKQA8M9s
Method : GET
Ip : ::1
Query : 
jwt=eyJ0eXAiOiJKV1QiLCJhbGciOiJIUzI1NiJ9.eyJjbGllbnRfaWQiOiJXRUJfUE9SVEFMIiwiY2xpZW50X3NlY3JldCI6IjdhMjdhZDEzZTlkMjc4ZDlmYjBiMDFmNmYyMTU5ZmZlOGRjMWE2ODMifQ.XB7RohmpKEhEnMMW_Mk5fUXbutqH9sLOm4KoKQA8M9s
Response : 
{
    "status": "INVALID_AUTH",
    "messages": "Authentication Failed",
    "results": null,
    "time": "2019-07-26 13:01:05"
}


--------------------------------------------------------------------------

Request time : 2019-07-26 13:03:41
Uri : /kompepar_api/main/travel_category?jwt=eyJ0eXAiOiJKV1QiLCJhbGciOiJIUzI1NiJ9.eyJjbGllbnRfaWQiOiJXRUJfUE9SVEFMIiwiY2xpZW50X3NlY3JldCI6IjdhMjdhZDEzZTlkMjc4ZDlmYjBiMDFmNmYyMTU5ZmZlOGRjMWE2ODMifQ.XB7RohmpKEhEnMMW_Mk5fUXbutqH9sLOm4KoKQA8M9s
Method : GET
Ip : ::1
Query : 
jwt=eyJ0eXAiOiJKV1QiLCJhbGciOiJIUzI1NiJ9.eyJjbGllbnRfaWQiOiJXRUJfUE9SVEFMIiwiY2xpZW50X3NlY3JldCI6IjdhMjdhZDEzZTlkMjc4ZDlmYjBiMDFmNmYyMTU5ZmZlOGRjMWE2ODMifQ.XB7RohmpKEhEnMMW_Mk5fUXbutqH9sLOm4KoKQA8M9s
Response : 
{
    "status": "ERROR",
    "messages": "Undefined property _categoryModel file :\/Applications\/XAMPP\/xamppfiles\/htdocs\/kompepar_api\/app\/Controllers\/Main.php at line : 41",
    "results": null,
    "time": "2019-07-26 13:03:41"
}


--------------------------------------------------------------------------

Request time : 2019-07-26 13:04:46
Uri : /kompepar_api/main/travel_category?jwt=eyJ0eXAiOiJKV1QiLCJhbGciOiJIUzI1NiJ9.eyJjbGllbnRfaWQiOiJXRUJfUE9SVEFMIiwiY2xpZW50X3NlY3JldCI6IjdhMjdhZDEzZTlkMjc4ZDlmYjBiMDFmNmYyMTU5ZmZlOGRjMWE2ODMifQ.XB7RohmpKEhEnMMW_Mk5fUXbutqH9sLOm4KoKQA8M9s
Method : GET
Ip : ::1
Query : 
jwt=eyJ0eXAiOiJKV1QiLCJhbGciOiJIUzI1NiJ9.eyJjbGllbnRfaWQiOiJXRUJfUE9SVEFMIiwiY2xpZW50X3NlY3JldCI6IjdhMjdhZDEzZTlkMjc4ZDlmYjBiMDFmNmYyMTU5ZmZlOGRjMWE2ODMifQ.XB7RohmpKEhEnMMW_Mk5fUXbutqH9sLOm4KoKQA8M9s
Response : 
{
    "status": "ERROR",
    "messages": "Trying to get property of non-object file :\/Applications\/XAMPP\/xamppfiles\/htdocs\/kompepar_api\/app\/Controllers\/Main.php at line : 50",
    "results": null,
    "time": "2019-07-26 13:04:46"
}


--------------------------------------------------------------------------

Request time : 2019-07-26 13:06:01
Uri : /kompepar_api/main/travel_category?jwt=eyJ0eXAiOiJKV1QiLCJhbGciOiJIUzI1NiJ9.eyJjbGllbnRfaWQiOiJXRUJfUE9SVEFMIiwiY2xpZW50X3NlY3JldCI6IjdhMjdhZDEzZTlkMjc4ZDlmYjBiMDFmNmYyMTU5ZmZlOGRjMWE2ODMifQ.XB7RohmpKEhEnMMW_Mk5fUXbutqH9sLOm4KoKQA8M9s
Method : GET
Ip : ::1
Query : 
jwt=eyJ0eXAiOiJKV1QiLCJhbGciOiJIUzI1NiJ9.eyJjbGllbnRfaWQiOiJXRUJfUE9SVEFMIiwiY2xpZW50X3NlY3JldCI6IjdhMjdhZDEzZTlkMjc4ZDlmYjBiMDFmNmYyMTU5ZmZlOGRjMWE2ODMifQ.XB7RohmpKEhEnMMW_Mk5fUXbutqH9sLOm4KoKQA8M9s
Response : 
{
    "status": "ERROR",
    "messages": "Trying to get property of non-object file :\/Applications\/XAMPP\/xamppfiles\/htdocs\/kompepar_api\/app\/Controllers\/Main.php at line : 52",
    "results": null,
    "time": "2019-07-26 13:06:01"
}


--------------------------------------------------------------------------

Request time : 2019-07-26 13:08:34
Uri : /kompepar_api/main/travel_category?jwt=eyJ0eXAiOiJKV1QiLCJhbGciOiJIUzI1NiJ9.eyJjbGllbnRfaWQiOiJXRUJfUE9SVEFMIiwiY2xpZW50X3NlY3JldCI6IjdhMjdhZDEzZTlkMjc4ZDlmYjBiMDFmNmYyMTU5ZmZlOGRjMWE2ODMifQ.XB7RohmpKEhEnMMW_Mk5fUXbutqH9sLOm4KoKQA8M9s
Method : GET
Ip : ::1
Query : 
jwt=eyJ0eXAiOiJKV1QiLCJhbGciOiJIUzI1NiJ9.eyJjbGllbnRfaWQiOiJXRUJfUE9SVEFMIiwiY2xpZW50X3NlY3JldCI6IjdhMjdhZDEzZTlkMjc4ZDlmYjBiMDFmNmYyMTU5ZmZlOGRjMWE2ODMifQ.XB7RohmpKEhEnMMW_Mk5fUXbutqH9sLOm4KoKQA8M9s
Response : 
{
    "status": "ERROR",
    "messages": "Undefined variable: categories_id file :\/Applications\/XAMPP\/xamppfiles\/htdocs\/kompepar_api\/app\/Models\/CategoryModel.php at line : 64",
    "results": null,
    "time": "2019-07-26 13:08:34"
}


--------------------------------------------------------------------------

Request time : 2019-07-26 13:08:52
Uri : /kompepar_api/main/travel_category?jwt=eyJ0eXAiOiJKV1QiLCJhbGciOiJIUzI1NiJ9.eyJjbGllbnRfaWQiOiJXRUJfUE9SVEFMIiwiY2xpZW50X3NlY3JldCI6IjdhMjdhZDEzZTlkMjc4ZDlmYjBiMDFmNmYyMTU5ZmZlOGRjMWE2ODMifQ.XB7RohmpKEhEnMMW_Mk5fUXbutqH9sLOm4KoKQA8M9s
Method : GET
Ip : ::1
Query : 
jwt=eyJ0eXAiOiJKV1QiLCJhbGciOiJIUzI1NiJ9.eyJjbGllbnRfaWQiOiJXRUJfUE9SVEFMIiwiY2xpZW50X3NlY3JldCI6IjdhMjdhZDEzZTlkMjc4ZDlmYjBiMDFmNmYyMTU5ZmZlOGRjMWE2ODMifQ.XB7RohmpKEhEnMMW_Mk5fUXbutqH9sLOm4KoKQA8M9s
Response : 
{
    "status": "ERROR",
    "messages": "Undefined variable: categories_id file :\/Applications\/XAMPP\/xamppfiles\/htdocs\/kompepar_api\/app\/Models\/CategoryModel.php at line : 64",
    "results": null,
    "time": "2019-07-26 13:08:52"
}


--------------------------------------------------------------------------

Request time : 2019-07-26 13:09:01
Uri : /kompepar_api/main/travel_category?jwt=eyJ0eXAiOiJKV1QiLCJhbGciOiJIUzI1NiJ9.eyJjbGllbnRfaWQiOiJXRUJfUE9SVEFMIiwiY2xpZW50X3NlY3JldCI6IjdhMjdhZDEzZTlkMjc4ZDlmYjBiMDFmNmYyMTU5ZmZlOGRjMWE2ODMifQ.XB7RohmpKEhEnMMW_Mk5fUXbutqH9sLOm4KoKQA8M9s
Method : GET
Ip : ::1
Query : 
jwt=eyJ0eXAiOiJKV1QiLCJhbGciOiJIUzI1NiJ9.eyJjbGllbnRfaWQiOiJXRUJfUE9SVEFMIiwiY2xpZW50X3NlY3JldCI6IjdhMjdhZDEzZTlkMjc4ZDlmYjBiMDFmNmYyMTU5ZmZlOGRjMWE2ODMifQ.XB7RohmpKEhEnMMW_Mk5fUXbutqH9sLOm4KoKQA8M9s
Response : 
{
    "status": "OK",
    "messages": "Success",
    "results": {
        "travel_category": [
            {
                "id": "5",
                "category_name": "Wisata Alam",
                "description": "",
                "sub_travel_category": []
            },
            {
                "id": "1",
                "category_name": "Wisata Edukasi",
                "description": "untuk tipe wisata edukasi",
                "sub_travel_category": false
            }
        ]
    },
    "time": "2019-07-26 13:09:01"
}


--------------------------------------------------------------------------

Request time : 2019-07-26 13:11:13
Uri : /kompepar_api/main/travel_category?jwt=eyJ0eXAiOiJKV1QiLCJhbGciOiJIUzI1NiJ9.eyJjbGllbnRfaWQiOiJXRUJfUE9SVEFMIiwiY2xpZW50X3NlY3JldCI6IjdhMjdhZDEzZTlkMjc4ZDlmYjBiMDFmNmYyMTU5ZmZlOGRjMWE2ODMifQ.XB7RohmpKEhEnMMW_Mk5fUXbutqH9sLOm4KoKQA8M9s
Method : GET
Ip : ::1
Query : 
jwt=eyJ0eXAiOiJKV1QiLCJhbGciOiJIUzI1NiJ9.eyJjbGllbnRfaWQiOiJXRUJfUE9SVEFMIiwiY2xpZW50X3NlY3JldCI6IjdhMjdhZDEzZTlkMjc4ZDlmYjBiMDFmNmYyMTU5ZmZlOGRjMWE2ODMifQ.XB7RohmpKEhEnMMW_Mk5fUXbutqH9sLOm4KoKQA8M9s
Response : 
{
    "status": "ERROR",
    "messages": "pg_query(): Query failed: ERROR:  column &quot;cateory_id&quot; does not exist\nLINE 7:     cateory_id = 5\n            ^\nHINT:  Perhaps you meant to reference the column &quot;sub_categories.category_id&quot;. file :\/Applications\/XAMPP\/xamppfiles\/htdocs\/kompepar_api\/panada\/Drivers\/Database\/Pgsql.php at line : 136",
    "results": null,
    "time": "2019-07-26 13:11:13"
}


--------------------------------------------------------------------------

Request time : 2019-07-26 13:11:17
Uri : /kompepar_api/main/travel_category?jwt=eyJ0eXAiOiJKV1QiLCJhbGciOiJIUzI1NiJ9.eyJjbGllbnRfaWQiOiJXRUJfUE9SVEFMIiwiY2xpZW50X3NlY3JldCI6IjdhMjdhZDEzZTlkMjc4ZDlmYjBiMDFmNmYyMTU5ZmZlOGRjMWE2ODMifQ.XB7RohmpKEhEnMMW_Mk5fUXbutqH9sLOm4KoKQA8M9s
Method : GET
Ip : ::1
Query : 
jwt=eyJ0eXAiOiJKV1QiLCJhbGciOiJIUzI1NiJ9.eyJjbGllbnRfaWQiOiJXRUJfUE9SVEFMIiwiY2xpZW50X3NlY3JldCI6IjdhMjdhZDEzZTlkMjc4ZDlmYjBiMDFmNmYyMTU5ZmZlOGRjMWE2ODMifQ.XB7RohmpKEhEnMMW_Mk5fUXbutqH9sLOm4KoKQA8M9s
Response : 
{
    "status": "OK",
    "messages": "Success",
    "results": {
        "travel_category": [
            {
                "id": "5",
                "category_name": "Wisata Alam",
                "description": "",
                "sub_travel_category": []
            },
            {
                "id": "1",
                "category_name": "Wisata Edukasi",
                "description": "untuk tipe wisata edukasi",
                "sub_travel_category": false
            }
        ]
    },
    "time": "2019-07-26 13:11:17"
}


--------------------------------------------------------------------------

Request time : 2019-07-26 13:13:42
Uri : /kompepar_api/main/travel_category?jwt=eyJ0eXAiOiJKV1QiLCJhbGciOiJIUzI1NiJ9.eyJjbGllbnRfaWQiOiJXRUJfUE9SVEFMIiwiY2xpZW50X3NlY3JldCI6IjdhMjdhZDEzZTlkMjc4ZDlmYjBiMDFmNmYyMTU5ZmZlOGRjMWE2ODMifQ.XB7RohmpKEhEnMMW_Mk5fUXbutqH9sLOm4KoKQA8M9s
Method : GET
Ip : ::1
Query : 
jwt=eyJ0eXAiOiJKV1QiLCJhbGciOiJIUzI1NiJ9.eyJjbGllbnRfaWQiOiJXRUJfUE9SVEFMIiwiY2xpZW50X3NlY3JldCI6IjdhMjdhZDEzZTlkMjc4ZDlmYjBiMDFmNmYyMTU5ZmZlOGRjMWE2ODMifQ.XB7RohmpKEhEnMMW_Mk5fUXbutqH9sLOm4KoKQA8M9s
Response : 
{
    "status": "ERROR",
    "messages": "Invalid argument supplied for foreach() file :\/Applications\/XAMPP\/xamppfiles\/htdocs\/kompepar_api\/app\/Controllers\/Main.php at line : 68",
    "results": null,
    "time": "2019-07-26 13:13:42"
}


--------------------------------------------------------------------------

Request time : 2019-07-26 13:18:31
Uri : /kompepar_api/main/travel_category?jwt=eyJ0eXAiOiJKV1QiLCJhbGciOiJIUzI1NiJ9.eyJjbGllbnRfaWQiOiJXRUJfUE9SVEFMIiwiY2xpZW50X3NlY3JldCI6IjdhMjdhZDEzZTlkMjc4ZDlmYjBiMDFmNmYyMTU5ZmZlOGRjMWE2ODMifQ.XB7RohmpKEhEnMMW_Mk5fUXbutqH9sLOm4KoKQA8M9s
Method : GET
Ip : ::1
Query : 
jwt=eyJ0eXAiOiJKV1QiLCJhbGciOiJIUzI1NiJ9.eyJjbGllbnRfaWQiOiJXRUJfUE9SVEFMIiwiY2xpZW50X3NlY3JldCI6IjdhMjdhZDEzZTlkMjc4ZDlmYjBiMDFmNmYyMTU5ZmZlOGRjMWE2ODMifQ.XB7RohmpKEhEnMMW_Mk5fUXbutqH9sLOm4KoKQA8M9s
Response : 
{
    "status": "ERROR",
    "messages": "Invalid argument supplied for foreach() file :\/Applications\/XAMPP\/xamppfiles\/htdocs\/kompepar_api\/app\/Controllers\/Main.php at line : 68",
    "results": null,
    "time": "2019-07-26 13:18:31"
}


--------------------------------------------------------------------------

Request time : 2019-07-26 13:18:41
Uri : /kompepar_api/main/travel_category?jwt=eyJ0eXAiOiJKV1QiLCJhbGciOiJIUzI1NiJ9.eyJjbGllbnRfaWQiOiJXRUJfUE9SVEFMIiwiY2xpZW50X3NlY3JldCI6IjdhMjdhZDEzZTlkMjc4ZDlmYjBiMDFmNmYyMTU5ZmZlOGRjMWE2ODMifQ.XB7RohmpKEhEnMMW_Mk5fUXbutqH9sLOm4KoKQA8M9s
Method : GET
Ip : ::1
Query : 
jwt=eyJ0eXAiOiJKV1QiLCJhbGciOiJIUzI1NiJ9.eyJjbGllbnRfaWQiOiJXRUJfUE9SVEFMIiwiY2xpZW50X3NlY3JldCI6IjdhMjdhZDEzZTlkMjc4ZDlmYjBiMDFmNmYyMTU5ZmZlOGRjMWE2ODMifQ.XB7RohmpKEhEnMMW_Mk5fUXbutqH9sLOm4KoKQA8M9s
Response : 
{
    "status": "OK",
    "messages": "Success",
    "results": {
        "travel_category": [
            {
                "id": "1",
                "category_name": "Wisata Edukasi",
                "description": "untuk tipe wisata edukasi",
                "sub_travel_category": []
            },
            {
                "id": "5",
                "category_name": "Wisata Alam",
                "description": "",
                "sub_travel_category": [
                    {
                        "id": "3",
                        "sub_travel_category_name": "Alam"
                    },
                    {
                        "id": "4",
                        "sub_travel_category_name": "Industri"
                    }
                ]
            }
        ]
    },
    "time": "2019-07-26 13:18:41"
}


--------------------------------------------------------------------------

Request time : 2019-07-26 13:19:38
Uri : /kompepar_api/main/travel_category?jwt=eyJ0eXAiOiJKV1QiLCJhbGciOiJIUzI1NiJ9.eyJjbGllbnRfaWQiOiJXRUJfUE9SVEFMIiwiY2xpZW50X3NlY3JldCI6IjdhMjdhZDEzZTlkMjc4ZDlmYjBiMDFmNmYyMTU5ZmZlOGRjMWE2ODMifQ.XB7RohmpKEhEnMMW_Mk5fUXbutqH9sLOm4KoKQA8M9s
Method : GET
Ip : ::1
Query : 
jwt=eyJ0eXAiOiJKV1QiLCJhbGciOiJIUzI1NiJ9.eyJjbGllbnRfaWQiOiJXRUJfUE9SVEFMIiwiY2xpZW50X3NlY3JldCI6IjdhMjdhZDEzZTlkMjc4ZDlmYjBiMDFmNmYyMTU5ZmZlOGRjMWE2ODMifQ.XB7RohmpKEhEnMMW_Mk5fUXbutqH9sLOm4KoKQA8M9s
Response : 
{
    "status": "OK",
    "messages": "Success",
    "results": {
        "travel_category": [
            {
                "id": "1",
                "category_name": "Wisata Edukasi",
                "description": "untuk tipe wisata edukasi",
                "sub_travel_category": []
            },
            {
                "id": "5",
                "category_name": "Wisata Alam",
                "description": "",
                "sub_travel_category": [
                    {
                        "id": "3",
                        "sub_travel_category_name": "Alam"
                    },
                    {
                        "id": "4",
                        "sub_travel_category_name": "Industri"
                    }
                ]
            }
        ]
    },
    "time": "2019-07-26 13:19:38"
}


--------------------------------------------------------------------------

Request time : 2019-07-26 19:26:16
Uri : /kompepar_api/master/travel_category?jwt=eyJ0eXAiOiJKV1QiLCJhbGciOiJIUzI1NiJ9.eyJjbGllbnRfaWQiOiJXRUJfUE9SVEFMIiwiY2xpZW50X3NlY3JldCI6IjdhMjdhZDEzZTlkMjc4ZDlmYjBiMDFmNmYyMTU5ZmZlOGRjMWE2ODMifQ.XB7RohmpKEhEnMMW_Mk5fUXbutqH9sLOm4KoKQA8M9s
Method : GET
Ip : ::1
Query : 
jwt=eyJ0eXAiOiJKV1QiLCJhbGciOiJIUzI1NiJ9.eyJjbGllbnRfaWQiOiJXRUJfUE9SVEFMIiwiY2xpZW50X3NlY3JldCI6IjdhMjdhZDEzZTlkMjc4ZDlmYjBiMDFmNmYyMTU5ZmZlOGRjMWE2ODMifQ.XB7RohmpKEhEnMMW_Mk5fUXbutqH9sLOm4KoKQA8M9s
Response : 
{
    "status": "OK",
    "messages": "Success",
    "results": {
        "travel_category": [
            {
                "id": "1",
                "category_name": "Wisata Edukasi",
                "description": "untuk tipe wisata edukasi",
                "sub_travel_category": []
            },
            {
                "id": "5",
                "category_name": "Wisata Alam",
                "description": "",
                "sub_travel_category": [
                    {
                        "id": "3",
                        "sub_travel_category_name": "Alam"
                    },
                    {
                        "id": "4",
                        "sub_travel_category_name": "Industri"
                    }
                ]
            }
        ]
    },
    "time": "2019-07-26 19:26:16"
}


--------------------------------------------------------------------------

Request time : 2019-07-26 19:29:56
Uri : /kompepar_api/master/point_types?jwt=eyJ0eXAiOiJKV1QiLCJhbGciOiJIUzI1NiJ9.eyJjbGllbnRfaWQiOiJXRUJfUE9SVEFMIiwiY2xpZW50X3NlY3JldCI6IjdhMjdhZDEzZTlkMjc4ZDlmYjBiMDFmNmYyMTU5ZmZlOGRjMWE2ODMifQ.XB7RohmpKEhEnMMW_Mk5fUXbutqH9sLOm4KoKQA8M9s
Method : GET
Ip : ::1
Query : 
jwt=eyJ0eXAiOiJKV1QiLCJhbGciOiJIUzI1NiJ9.eyJjbGllbnRfaWQiOiJXRUJfUE9SVEFMIiwiY2xpZW50X3NlY3JldCI6IjdhMjdhZDEzZTlkMjc4ZDlmYjBiMDFmNmYyMTU5ZmZlOGRjMWE2ODMifQ.XB7RohmpKEhEnMMW_Mk5fUXbutqH9sLOm4KoKQA8M9s
Response : 
{
    "status": "OK",
    "messages": "Success",
    "results": {
        "point_types": [
            {
                "id": "1",
                "point_type_name": "Data",
                "description": "Tipe point untuk data"
            },
            {
                "id": "2",
                "point_type_name": "Program",
                "description": "untuk tipe point program"
            },
            {
                "id": "3",
                "point_type_name": "Potensial",
                "description": "untuk tipe point potensial"
            },
            {
                "id": "4",
                "point_type_name": "Pelaku",
                "description": "untuk tipe point pelaku"
            },
            {
                "id": "5",
                "point_type_name": "Pemberdayaan",
                "description": "untuk tipe point pemberdayaan"
            },
            {
                "id": "6",
                "point_type_name": "Pengunjung",
                "description": "untuk tipe point pengunjung"
            }
        ]
    },
    "time": "2019-07-26 19:29:56"
}


--------------------------------------------------------------------------

